{
  "version": "1.0.0",
  "npmClient": "npm",
  "npmClientArgs": [ ],
  "packages": [
    "definitions/**",
    "clients/*",
    "services/**",
    "pocs/*"
  ],
  "command": {
    "bootstrap": {
      "npmClientArgs": []
    }
  }
}
